<?xml version="1.0" standalone="no"?>
<!DOCTYPE svg PUBLIC "-//W3C//DTD SVG 20010904//EN"
 "http://www.w3.org/TR/2001/REC-SVG-20010904/DTD/svg10.dtd">
<svg version="1.0" xmlns="http://www.w3.org/2000/svg"
 width="300.000000pt" height="309.000000pt" viewBox="0 0 300.000000 309.000000"
 preserveAspectRatio="xMidYMid meet">

<g transform="translate(0.000000,309.000000) scale(0.100000,-0.100000)"
fill="#164E87" stroke="none">
<path d="M330 2558 c-19 -5 -57 -25 -86 -44 -87 -58 -134 -133 -134 -216 0
-59 5 -69 175 -328 42 -63 142 -216 222 -340 81 -124 197 -301 258 -395 61
-93 139 -214 174 -267 72 -111 111 -138 197 -138 57 0 154 26 154 41 0 10 -15
47 -100 239 -23 52 -61 140 -85 195 -24 55 -102 235 -175 400 -73 165 -148
337 -166 383 -19 46 -39 91 -44 100 -9 16 -100 224 -132 302 -28 67 -149 99
-258 68z"/>
<path d="M1812 1674 c4 -785 4 -789 26 -869 30 -105 61 -169 140 -290 77 -117
167 -210 273 -281 184 -123 423 -182 634 -155 54 6 102 14 106 17 5 3 9 528 9
1180 l0 1174 -467 0 c-258 0 -526 3 -596 7 l-128 6 3 -789z"/>
</g>
</svg>
